<svg width="418" height="468" viewBox="0 0 418 468" fill="none" xmlns="http://www.w3.org/2000/svg">
<path opacity="0.1" d="M13.1189 302.196V150.081L274.175 2.10547L404.171 77.2169V377.663L274.175 452.892L13.1189 302.196Z" stroke="#9DEAD8" stroke-width="2.36571" stroke-miterlimit="10" stroke-linejoin="round"/>
<path opacity="0.1" d="M25.7754 295.928V159.308L274.175 15.9453L392.461 84.1962V371.157L274.057 439.053L25.7754 295.928Z" stroke="#9DEAD8" stroke-width="2.36571" stroke-miterlimit="10" stroke-linejoin="round"/>
<path opacity="0.2" d="M37.604 289.066V166.167L274.175 29.5469L380.633 91.0554V364.295L274.175 425.449L37.604 289.066ZM238.571 241.278V213.954L214.914 227.557L238.571 241.278Z" stroke="#9DEAD8" stroke-width="2.36571" stroke-miterlimit="10" stroke-linejoin="round"/>
<path opacity="0.4" d="M49.4325 282.325V173.029L274.175 43.2695L368.804 97.9175V357.436L274.175 411.848L49.4325 282.325ZM250.4 261.743V193.492L191.257 227.677L250.4 261.743Z" stroke="#9DEAD8" stroke-width="2.36571" stroke-miterlimit="10" stroke-linejoin="round"/>
<path opacity="0.6" d="M61.2611 275.462V179.887L274.175 56.9883L356.975 104.776V350.573L274.175 398.124L61.2611 275.462ZM262.229 282.204V172.908L167.6 227.556L262.229 282.204Z" stroke="#9DEAD8" stroke-width="2.36571" stroke-miterlimit="10" stroke-linejoin="round"/>
<path opacity="0.9" d="M143.943 227.441L72.9714 268.486V350.459L274.057 466.497L345.029 425.57V343.598L143.943 227.441Z" fill="black"/>
<path opacity="0.9" d="M2 145.468L203.086 29.4297L274.057 70.3565V152.329L72.9714 268.485L2 227.44V145.468Z" fill="black"/>
<path opacity="0.9" d="M274.057 70.3565V302.551L345.029 343.597L416 302.551V70.3565L345.029 29.4297L274.057 70.3565Z" fill="black"/>
<path d="M274.057 70.3555V152.328L72.9714 268.484V186.512L274.057 70.3555Z" fill="url(#paint0_linear_5866_47348)"/>
<path opacity="0.2" d="M416 302.548L345.029 261.621L274.057 302.548" stroke="#4BC79A" stroke-width="2.36571" stroke-miterlimit="10" stroke-linejoin="round"/>
<path d="M345.029 111.401V343.595L416 302.55V70.3555L345.029 111.401Z" fill="url(#paint1_linear_5866_47348)"/>
<path d="M274.057 70.3565L345.029 111.402L416 70.3565L345.029 29.4297L274.057 70.3565Z" stroke="#4BC79A" stroke-width="2.36571" stroke-miterlimit="10" stroke-linejoin="round"/>
<path d="M72.9714 268.486V186.514L2 145.469" stroke="#9DEAD8" stroke-width="2.36571" stroke-miterlimit="10" stroke-linejoin="round"/>
<path d="M274.057 70.3555L72.9714 186.512" stroke="#9DEAD8" stroke-width="2.36571" stroke-miterlimit="10" stroke-linejoin="round"/>
<path d="M345.029 343.598L274.057 384.288" stroke="#4BC79A" stroke-width="2.36571" stroke-miterlimit="10" stroke-linejoin="round"/>
<path d="M274.057 466.495V384.286L72.9714 268.484" stroke="#4BC79A" stroke-width="2.36571" stroke-miterlimit="10" stroke-linejoin="round"/>
<g opacity="0.4">
<path d="M110.586 329.046C110.586 319.228 115.436 314.378 125.135 320.056C126.791 321.002 129.157 322.658 130.813 324.314V327.508C129.039 325.852 127.265 324.314 125.254 323.25C118.038 319.11 113.543 321.949 113.662 331.648C114.726 329.046 117.802 327.863 122.533 330.465C129.039 334.25 132.587 341.111 132.587 346.315C132.587 351.875 128.921 354.95 121.942 350.929C115.554 347.262 110.586 339.81 110.586 329.046ZM129.275 344.659C129.275 339.928 125.963 335.197 122.06 332.949C118.038 330.583 114.726 331.766 114.726 336.261C114.726 340.874 118.038 345.724 122.06 348.09C125.963 350.455 129.275 349.391 129.275 344.659Z" fill="#4BC79A"/>
<path d="M167.482 367.728L170.794 368.911C170.794 373.406 173.869 378.137 178.127 380.621C182.031 382.869 184.988 382.041 184.988 378.255C184.988 374.352 182.031 370.212 178.009 367.846L175.643 366.545V363.706L178.009 365.007C181.439 367.018 184.397 366.545 184.397 362.76C184.397 359.211 181.558 355.308 178.127 353.297C174.342 351.05 171.74 352.232 171.503 355.899L168.31 353.297C168.546 348.684 172.331 347.146 178.127 350.458C184.16 354.007 187.709 359.684 187.709 364.179C187.709 368.201 185.106 369.266 181.794 368.438C185.579 371.395 188.418 376.126 188.418 380.503C188.418 384.998 184.988 387.127 178.246 383.223C171.858 379.675 167.718 373.642 167.482 367.728Z" fill="#4BC79A"/>
<path d="M231.474 391.266V386.771C229.7 388.782 226.388 389.137 222.839 387.954V384.524C226.388 385.47 230.055 385.115 232.302 382.395L234.668 383.696V415.278L231.474 413.504V391.266Z" fill="#4BC79A"/>
</g>
<path d="M156.245 272.033L160.74 269.43C156.008 270.14 150.212 269.549 145.954 268.011L149.384 266C154.116 267.419 160.03 268.129 166.299 267.065L168.665 268.366L137.082 286.7L133.889 284.926L156.245 272.033Z" fill="#4BC79A"/>
<path d="M191.139 299.475C201.903 293.324 213.022 293.442 219.764 297.345C226.506 301.249 226.743 307.636 215.979 313.787C205.097 320.056 194.333 320.411 186.999 316.271C179.665 312.013 180.257 305.744 191.139 299.475ZM212.667 311.895C220.356 307.4 222.485 302.313 216.925 299.001C211.129 295.689 202.14 296.872 194.451 301.367C186.171 306.099 184.042 311.185 189.956 314.615C195.752 317.927 204.387 316.626 212.667 311.895Z" fill="#4BC79A"/>
<path d="M258.207 346.314L243.421 337.798L246.497 336.023L279.144 332.238L283.993 335.077L264.121 346.551L268.971 349.39L266.25 350.927L261.401 348.089L252.411 353.293L249.336 351.519L258.207 346.314ZM272.401 338.153L278.316 334.722L249.336 338.034L255.25 341.465L260.928 344.777L272.401 338.153Z" fill="#4BC79A"/>
<g opacity="0.4">
<path d="M23.1732 208.04C23.1732 203.072 26.0121 201.298 29.6789 202.48C26.7218 199.642 24.1195 195.265 24.1195 190.652C24.1195 185.092 28.0229 183.436 33.9372 186.748C39.8515 190.179 43.7549 196.33 43.7549 201.889C43.7549 206.502 41.1526 207.922 38.1955 207.33C41.8624 210.406 44.5829 215.492 44.5829 220.342C44.5829 225.783 41.3892 228.74 33.8189 224.482C26.2486 220.223 23.1732 213.481 23.1732 208.04ZM41.2709 218.212C41.2709 213.836 38.4321 209.105 33.9372 206.502C29.4424 203.9 26.6035 205.319 26.6035 209.814C26.6035 214.309 29.4424 218.804 33.9372 221.406C38.4321 223.89 41.2709 222.707 41.2709 218.212ZM40.4429 200.351C40.4429 196.448 37.7224 192.19 33.8189 189.942C30.0338 187.813 27.3132 188.759 27.3132 192.781C27.3132 197.039 30.1521 201.298 33.8189 203.427C37.6041 205.556 40.4429 204.61 40.4429 200.351Z" fill="#9DEAD8"/>
</g>
<g opacity="0.4">
<path d="M343.727 74.6151L328.942 66.0985L332.017 64.3242L364.664 60.5391L369.514 63.3779L349.642 74.8517L354.491 77.6905L351.771 79.2282L346.921 76.3894L337.931 81.5939L334.856 79.8196L343.727 74.6151ZM357.922 66.3351L363.836 62.9048L334.856 66.2168L340.77 69.6471L346.448 72.9591L357.922 66.3351Z" fill="#4BC79A"/>
</g>
<path d="M416 70.3555L345.029 111.401V343.595" stroke="#4BC79A" stroke-width="2.36571" stroke-miterlimit="10" stroke-linejoin="round"/>
<path d="M324.683 298.526L321.371 296.634C322.318 295.096 322.791 292.967 322.791 290.365C322.791 286.934 321.845 283.622 319.952 280.429C317.586 276.407 313.683 272.622 308.005 269.31C311.908 273.095 313.919 278.536 313.919 282.794C313.919 290.246 309.306 291.547 304.102 288.59C298.542 285.397 293.338 278.418 293.338 270.374C293.338 266.944 294.284 264.46 296.295 263.277C298.661 261.858 302.682 262.449 308.596 265.879C319.124 271.912 326.103 281.493 326.103 292.021C325.984 294.15 325.63 296.989 324.683 298.526ZM303.51 267.772C298.897 265.17 295.94 267.062 295.94 271.675C295.94 276.289 298.779 281.611 303.51 284.332C308.242 287.053 310.962 284.923 310.962 280.31C310.962 275.697 308.123 270.493 303.51 267.772Z" fill="#4BC79A"/>
<path d="M309.306 224.955C298.542 218.804 293.219 208.986 293.219 201.179C293.219 193.372 298.661 190.06 309.306 196.211C320.189 202.48 325.866 211.707 325.866 220.105C325.985 228.622 320.189 231.224 309.306 224.955ZM309.306 200.115C301.618 195.62 296.058 196.329 296.058 202.835C296.058 209.459 301.618 216.675 309.306 221.051C317.586 225.783 323.027 225.073 323.027 218.331C323.027 211.707 317.586 204.846 309.306 200.115Z" fill="#4BC79A"/>
<path d="M316.403 159.425L315.694 155.167C320.189 157.769 323.146 155.995 323.146 150.909C323.146 146.414 320.662 141.564 316.877 139.435C312.973 137.188 310.607 139.198 310.607 143.93V146.65L307.768 144.994V142.274C307.768 138.371 305.521 133.639 301.854 131.51C298.306 129.499 296.058 131.392 296.058 135.413C296.058 139.79 298.66 144.285 302.446 146.65L301.736 149.963C297.004 146.887 293.219 140.381 293.219 133.639C293.219 126.66 296.886 124.768 301.381 127.37C305.403 129.617 308.005 134.23 308.951 138.607C309.661 134.704 312.736 133.166 317.231 135.768C321.726 138.371 325.866 144.758 325.866 152.446C325.985 159.898 322.199 162.501 316.403 159.425Z" fill="#4BC79A"/>
<g opacity="0.4">
<path d="M369.987 263.045V270.615V283.627L367.03 285.401V261.389L370.342 259.496C379.45 266.475 388.203 263.4 398.612 257.367V261.507C387.493 267.776 377.557 269.196 369.987 263.045Z" fill="#4BC79A"/>
<path d="M376.374 208.392L371.879 210.994C374.837 211.349 377.202 213.833 378.03 217.382L374.6 219.274C373.535 215.726 371.051 213.005 367.03 212.769V210.048L398.612 191.832V195.499L376.374 208.392Z" fill="#4BC79A"/>
<path d="M395.063 149.963C389.977 143.93 383.708 137.661 376.493 141.919C371.761 144.64 369.395 149.49 369.395 153.63C369.395 157.533 371.643 160.135 376.966 156.941L376.611 160.845C370.342 164.512 366.557 161.909 366.557 155.167C366.557 148.07 370.578 141.328 376.256 138.134C379.568 136.242 382.407 135.887 385.009 136.715C388.794 137.779 392.343 140.973 395.773 145.35V137.306V126.306L398.73 124.531V147.833L395.063 149.963Z" fill="#4BC79A"/>
</g>
<path opacity="0.2" d="M345.029 29.4297V111.402" stroke="#4BC79A" stroke-width="2.36571" stroke-miterlimit="10" stroke-linejoin="round"/>
<path opacity="0.2" d="M72.9714 350.459L144.061 309.413L143.943 227.441" stroke="#4BC79A" stroke-width="2.36571" stroke-miterlimit="10" stroke-linejoin="round"/>
<path opacity="0.2" d="M345.029 425.571L274.057 384.289" stroke="#4BC79A" stroke-width="2.36571" stroke-miterlimit="10" stroke-linejoin="round"/>
<g opacity="0.4">
<path d="M302.209 423.438V419.535C303.984 419.653 305.994 418.943 308.36 417.642C311.317 415.986 313.683 413.384 315.575 410.19C317.941 406.168 319.242 400.845 319.124 394.34C317.823 399.544 314.038 404.039 310.371 406.168C303.865 409.953 300.435 406.523 300.435 400.491C300.435 393.985 303.865 386.06 310.844 382.038C313.919 380.264 316.403 379.909 318.414 381.092C320.78 382.511 322.318 386.178 322.318 393.039C322.318 405.222 317.586 415.986 308.478 421.309C306.586 422.373 303.984 423.556 302.209 423.438ZM318.178 389.726C318.178 384.404 314.984 382.866 310.962 385.113C306.941 387.479 303.747 392.565 303.747 398.006C303.747 403.448 306.941 404.749 310.962 402.501C314.984 400.254 318.178 395.049 318.178 389.726Z" fill="#4BC79A"/>
</g>
<path opacity="0.2" d="M2 227.439L72.9714 186.512" stroke="#9DEAD8" stroke-width="2.36571" stroke-miterlimit="10" stroke-linejoin="round"/>
<path opacity="0.2" d="M274.057 152.329L203.086 111.402V29.4297" stroke="#9DEAD8" stroke-width="2.36571" stroke-miterlimit="10" stroke-linejoin="round"/>
<path d="M121.35 211.474L124.662 208.28C125.372 212.657 128.447 213.248 132.114 211.001C136.609 208.398 139.566 203.43 139.566 198.108C139.566 192.903 136.727 191.129 132.233 193.731C129.157 195.505 126.91 198.699 125.609 202.011L122.06 203.43L124.662 181.429L142.05 171.375V174.805L127.028 183.44L126.082 192.312L125.372 198.936C127.146 195.15 129.749 191.957 133.061 190.064C139.33 186.397 142.997 189.118 142.997 195.978C142.997 203.076 138.857 210.409 132.351 214.076C125.727 217.98 122.178 215.969 121.35 211.474Z" fill="#9DEAD8"/>
<path d="M185.698 156.943V151.739C183.923 156.234 180.611 160.847 177.063 163.804V159.901C180.611 156.589 184.278 151.739 186.526 145.825L188.891 144.523V180.955L185.698 182.73V156.943Z" fill="#9DEAD8"/>
<path d="M226.861 140.383C226.861 127.963 232.657 118.382 239.399 114.478C246.142 110.575 251.701 113.65 251.701 125.952C251.701 138.49 246.615 148.071 239.399 152.211C232.066 156.588 226.861 152.921 226.861 140.383ZM248.507 127.963C248.507 119.091 245.077 114.596 239.518 117.908C233.722 121.22 230.291 129.619 230.291 138.49C230.291 148.071 233.603 152.448 239.518 149.017C245.195 145.705 248.507 137.544 248.507 127.963Z" fill="#9DEAD8"/>
<g opacity="0.4">
<path d="M85.0364 122.638L78.5307 126.424L67.2936 132.929L64.3364 131.155L85.1547 119.09L88.4667 120.982C86.929 132.338 93.9079 138.37 104.435 144.403L100.887 146.532C89.5313 140.145 83.4987 132.22 85.0364 122.638Z" fill="#9DEAD8"/>
<path d="M147.018 115.662C149.739 108.21 151.986 99.6933 144.771 95.435C140.039 92.7145 134.598 93.0693 131.05 95.0802C127.738 96.9728 126.555 100.285 131.996 103.36L128.447 105.016C122.178 101.349 122.533 96.7362 128.211 93.4242C134.362 89.8756 142.287 89.9939 147.846 93.1876C151.158 95.0802 152.814 97.4459 153.405 100.048C154.352 103.952 153.406 108.565 151.395 113.769L158.374 109.748L167.955 104.188L170.912 105.962L150.685 117.673L147.018 115.662Z" fill="#9DEAD8"/>
<path d="M207.107 84.4308L203.795 82.5383C206.516 82.0651 209 81.1188 211.365 79.8176C214.323 78.1616 215.742 76.1508 215.742 74.0217C215.742 71.3011 213.14 68.2256 207.462 65.0319C209.946 68.1073 208.172 71.3011 204.505 73.5485C197.999 77.3336 189.956 76.6239 184.751 73.5485C179.192 70.3548 177.417 65.2685 184.396 61.3651C187.472 59.5908 190.902 58.6445 194.924 58.6445C199.655 58.6445 205.215 60.0639 211.129 63.4942C221.656 69.5268 223.904 76.3873 214.796 81.5919C212.667 82.5382 209.709 83.9577 207.107 84.4308ZM201.903 62.9028C197.289 60.3005 191.257 60.4188 187.235 62.6662C183.213 65.0319 182.859 68.4622 187.59 71.1828C192.321 73.9034 198.236 73.6668 202.257 71.3011C206.161 69.0537 206.516 65.6234 201.903 62.9028Z" fill="#9DEAD8"/>
</g>
<path d="M274.057 70.3565V302.551L345.029 343.597L416 302.551V70.3565L345.029 29.4297L274.057 70.3565Z" stroke="#4BC79A" stroke-width="2.36571" stroke-miterlimit="10" stroke-linejoin="round"/>
<path d="M2 145.468L203.086 29.4297L274.057 70.3565V152.329L72.9714 268.485L2 227.44V145.468Z" stroke="#9DEAD8" stroke-width="2.36571" stroke-miterlimit="10" stroke-linejoin="round"/>
<path d="M143.943 227.441L72.9714 268.486V350.459L274.057 466.497L345.029 425.57V343.598L143.943 227.441Z" stroke="#4BC79A" stroke-width="2.36571" stroke-miterlimit="10" stroke-linejoin="round"/>
<path d="M345.029 343.598V425.57L274.057 466.497V384.288L345.029 343.598Z" fill="url(#paint2_linear_5866_47348)"/>
<path d="M72.9714 268.484L274.057 384.404L345.029 343.595V111.401L274.53 70.3555L72.9714 186.512V268.484Z" stroke="white" stroke-width="2.36571" stroke-miterlimit="10" stroke-linecap="round" stroke-linejoin="round"/>
<defs>
<linearGradient id="paint0_linear_5866_47348" x1="244.007" y1="208.22" x2="173.206" y2="169.229" gradientUnits="userSpaceOnUse">
<stop stop-color="#9DEAD8"/>
<stop offset="1" stop-color="#9DEAD8" stop-opacity="0"/>
</linearGradient>
<linearGradient id="paint1_linear_5866_47348" x1="448.499" y1="245.805" x2="380.264" y2="206.814" gradientUnits="userSpaceOnUse">
<stop stop-color="#4BC79A"/>
<stop offset="1" stop-color="#4BC79A" stop-opacity="0"/>
</linearGradient>
<linearGradient id="paint2_linear_5866_47348" x1="344.814" y1="425.775" x2="277.434" y2="386.099" gradientUnits="userSpaceOnUse">
<stop stop-color="#4BC79A"/>
<stop offset="1" stop-color="#4BC79A" stop-opacity="0"/>
</linearGradient>
</defs>
</svg>
