<svg width="80" height="80" viewBox="0 0 80 80" fill="none" xmlns="http://www.w3.org/2000/svg">
<g clip-path="url(#clip0_4487_2651)">
<path d="M65.625 23.75V63.75H25L4.375 74.375V23.75H37.0125H65.625Z" stroke="#5E5EE5" stroke-width="1.25" stroke-miterlimit="10"/>
<path opacity="0.78" d="M8.90625 27.9688H36.7188H61.0938V59.5312H26.6438L8.90625 67.5V27.9688Z" stroke="#5E5EE5" stroke-width="1.25" stroke-miterlimit="10"/>
<path opacity="0.55" d="M13.4375 32.1875H36.4188H56.5625V55.3125H28.2875L13.4375 60.625V32.1875Z" stroke="#5E5EE5" stroke-width="1.25" stroke-miterlimit="10"/>
<path opacity="0.33" d="M17.9688 36.4062H36.1188H52.0312V51.0938H29.9312L17.9688 53.75V36.4062Z" stroke="#5E5EE5" stroke-width="1.25" stroke-miterlimit="10"/>
<path opacity="0.1" d="M47.5 40.625H22.5V46.875H47.5V40.625Z" stroke="#5E5EE5" stroke-width="1.25" stroke-miterlimit="10"/>
<path d="M36.875 9.375H79.375V46.875" stroke="url(#paint0_linear_4487_2651)" stroke-width="1.2625" stroke-miterlimit="10"/>
<path d="M36.875 14.168H74.7937V44.168" stroke="url(#paint1_linear_4487_2651)" stroke-width="1.2625" stroke-miterlimit="10"/>
<path d="M36.875 18.957H70.2063V41.457" stroke="url(#paint2_linear_4487_2651)" stroke-width="1.2625" stroke-miterlimit="10"/>
<path d="M36.875 23.75H65.625V38.75" stroke="url(#paint3_linear_4487_2651)" stroke-width="1.2625" stroke-miterlimit="10"/>
<path d="M79.375 9.375V46.875L61.25 36.25H36.875V9.375H79.375Z" stroke="white" stroke-width="1.25" stroke-miterlimit="10"/>
</g>
<defs>
<linearGradient id="paint0_linear_4487_2651" x1="55.0813" y1="33.7125" x2="71.95" y2="4.5" gradientUnits="userSpaceOnUse">
<stop offset="0.17" stop-color="#9988D8" stop-opacity="0.2"/>
<stop offset="0.24" stop-color="#9988D8" stop-opacity="0.31"/>
<stop offset="0.39" stop-color="#9988D8" stop-opacity="0.58"/>
<stop offset="0.59" stop-color="#9988D8"/>
</linearGradient>
<linearGradient id="paint1_linear_4487_2651" x1="53.9" y1="32.7867" x2="67.5" y2="9.23047" gradientUnits="userSpaceOnUse">
<stop offset="0.17" stop-color="#9988D8" stop-opacity="0.2"/>
<stop offset="0.24" stop-color="#9988D8" stop-opacity="0.31"/>
<stop offset="0.39" stop-color="#9988D8" stop-opacity="0.58"/>
<stop offset="0.59" stop-color="#9988D8"/>
</linearGradient>
<linearGradient id="paint2_linear_4487_2651" x1="52.7848" y1="31.7991" x2="63.1004" y2="13.8766" gradientUnits="userSpaceOnUse">
<stop offset="0.17" stop-color="#9988D8" stop-opacity="0.2"/>
<stop offset="0.24" stop-color="#9988D8" stop-opacity="0.31"/>
<stop offset="0.39" stop-color="#9988D8" stop-opacity="0.58"/>
<stop offset="0.59" stop-color="#9988D8"/>
</linearGradient>
<linearGradient id="paint3_linear_4487_2651" x1="50.7312" y1="32.3812" x2="58.6187" y2="18.7125" gradientUnits="userSpaceOnUse">
<stop offset="0.17" stop-color="#9988D8" stop-opacity="0.2"/>
<stop offset="0.24" stop-color="#9988D8" stop-opacity="0.31"/>
<stop offset="0.39" stop-color="#9988D8" stop-opacity="0.58"/>
<stop offset="0.59" stop-color="#9988D8"/>
</linearGradient>
<clipPath id="clip0_4487_2651">
<rect width="80" height="80" fill="white"/>
</clipPath>
</defs>
</svg>
