<svg width="80" height="80" viewBox="0 0 80 80" fill="none" xmlns="http://www.w3.org/2000/svg">
<path d="M31.8125 34.3733C31.25 34.0608 30.625 33.9983 29.9375 34.0608C29 34.1858 28.25 34.6233 27.625 35.3108C26.875 36.1858 26.5625 37.2484 26.5625 38.3734C26.5625 38.7484 26.625 39.1859 26.6875 39.5609C26.9375 40.6234 27.5 41.4359 28.375 42.0609C29.125 42.5609 29.9375 42.8109 30.8125 42.6859C31.75 42.5609 32.5 42.1233 33.125 41.3733C33.8125 40.5608 34.125 39.5608 34.1875 38.4983C34.1875 38.0608 34.1875 37.6233 34.0625 37.2483C33.75 35.9983 33 34.9983 31.8125 34.3733Z" fill="#6A8AFF"/>
<path d="M45.8125 34.3729C45.1875 34.0604 44.5 33.9979 43.8125 34.1229C43 34.2479 42.3125 34.6854 41.8125 35.3104C41.0625 36.1854 40.6875 37.1854 40.625 38.3729C40.625 38.7479 40.6875 39.1229 40.75 39.5604C40.9375 40.4979 41.375 41.2479 42.125 41.9354C42.875 42.5604 43.6875 42.8729 44.6875 42.8729C45.125 42.8729 45.5625 42.7479 46 42.5604C46.8125 42.1854 47.375 41.5603 47.8125 40.7478C48.1875 40.0603 48.3125 39.3104 48.3125 38.4979C48.3125 37.6854 48.125 36.9979 47.8125 36.3104C47.3125 35.3729 46.6875 34.7479 45.8125 34.3729Z" fill="#6A8AFF"/>
<path d="M47.5005 65.625C47.5005 55.625 55.6255 47.5 65.6255 47.5C67.063 47.5 68.438 47.6875 69.7505 48C70.813 44.6875 71.438 41.125 71.438 37.4375C71.438 18.625 56.188 3.375 37.3755 3.375C18.563 3.375 3.31299 18.625 3.31299 37.4375C3.31299 56.25 18.563 71.4999 37.3755 71.4999C41.063 71.4999 44.6255 70.875 47.938 69.8125C47.688 68.4375 47.5005 67.0625 47.5005 65.625ZM48.1255 47C40.938 50.25 33.813 50.25 26.6255 47C26.313 47.25 26.063 47.4375 25.7505 47.6875C26.938 48.375 28.1255 48.9375 29.3755 49.4375C28.688 50.75 27.938 52 27.063 53.25C26.938 53.1875 26.8755 53.1875 26.7505 53.1875C25.688 52.875 24.6255 52.4375 23.6255 52C22.6255 51.5625 21.6255 51.0625 20.688 50.5625C19.6255 50 18.563 49.3125 17.563 48.625C17.188 48.375 16.813 48.125 16.438 47.8125C16.3755 47.75 16.313 47.75 16.313 47.6875C16.313 47.4375 16.2505 47.125 16.2505 46.875C16.2505 46.625 16.2505 46.3125 16.188 46.0625C16.188 45.75 16.1255 45.4375 16.1255 45.125C16.1255 44.3125 16.063 43.5 16.1255 42.6875C16.1255 42.4375 16.1255 42.1875 16.188 42C16.188 41.5625 16.2505 41.125 16.313 40.625C16.3755 40.125 16.438 39.5625 16.5005 39.0625C16.6255 38.1875 16.7505 37.3125 16.938 36.4375C17.313 34.8125 17.7505 33.1875 18.313 31.625C18.688 30.5 19.188 29.4375 19.688 28.375C20.0005 27.6875 20.3755 27.0625 20.688 26.4375C21.2505 25.375 21.8755 24.375 22.5005 23.375C22.563 23.3125 22.6255 23.25 22.688 23.1875C23.0005 23.0625 23.2505 22.9375 23.563 22.8125C24.688 22.3125 25.8755 21.875 27.1255 21.5C28.2505 21.1875 29.3755 20.875 30.5005 20.625C30.7505 20.5625 31.0005 20.5 31.313 20.4375H31.3755L31.438 20.5C31.688 21 31.938 21.5 32.188 22.0625C32.313 22.3125 32.3755 22.5625 32.5005 22.75C33.1255 22.6875 33.813 22.5625 34.438 22.5625C35.063 22.5 35.7505 22.4375 36.3755 22.4375C37.0005 22.4375 37.688 22.4375 38.313 22.4375C38.938 22.4375 39.6255 22.5 40.2505 22.5625C40.8755 22.625 41.563 22.6875 42.188 22.75C42.188 22.6875 42.2505 22.6875 42.2505 22.625C42.563 22 42.813 21.4375 43.1255 20.8125C43.188 20.6875 43.2505 20.5625 43.313 20.4375C43.3755 20.4375 43.3755 20.4375 43.438 20.4375H43.5005C44.188 20.5625 44.938 20.75 45.6255 20.875C46.813 21.125 48.0005 21.5 49.1255 21.9375C50.063 22.25 51.0005 22.6875 51.938 23.0625C52.063 23.125 52.1255 23.1875 52.188 23.25C52.563 23.8125 52.938 24.375 53.2505 25C53.938 26.125 54.563 27.3125 55.1255 28.5625C55.6255 29.625 56.063 30.6875 56.438 31.75C57.0005 33.3125 57.438 34.875 57.813 36.5C57.938 37.25 58.1255 38 58.188 38.8125C58.2505 39.3125 58.313 39.8125 58.3755 40.3125C58.3755 40.5625 58.438 40.8125 58.438 41.0625C58.438 41.4375 58.5005 41.8125 58.5005 42.25C58.5005 42.625 58.5005 43.0625 58.5005 43.4375C58.5005 43.5 58.5005 43.5625 58.5005 43.5625C58.5005 43.875 58.5005 44.1875 58.5005 44.5C58.5005 44.5625 58.5005 44.625 58.5005 44.6875C58.5005 45.1875 58.5005 45.625 58.438 46.125C58.438 46.625 58.3755 47.125 58.313 47.625C58.313 47.75 58.2505 47.8125 58.188 47.9375C57.313 48.5625 56.438 49.1875 55.5005 49.75C54.313 50.5 53.1255 51.125 51.8755 51.6875C50.6255 52.25 49.3755 52.75 48.063 53.1875C47.938 53.25 47.7505 53.25 47.6255 53.3125C46.7505 52.125 46.0005 50.875 45.313 49.5C46.563 49 47.7505 48.4375 48.938 47.75C48.688 47.4375 48.438 47.1875 48.1255 47Z" fill="#7289DA"/>
<path d="M65.625 51.25C57.6875 51.25 51.25 57.6875 51.25 65.625C51.25 73.5625 57.6875 80 65.625 80C73.5625 80 80 73.5625 80 65.625C80 57.6875 73.5625 51.25 65.625 51.25ZM64.75 56.75C65 56.125 65.25 55.625 65.5625 55.0625L65.75 54.75L71.5625 64.8125C70.3125 64.0625 69 63.6874 67.625 63.6874C66.5625 63.6874 65.5 63.8749 64.375 64.3124C62.8125 61.5624 64 58.5625 64.75 56.75ZM58.375 71.125C57.75 71.1875 57.125 71.25 56.5 71.25H56.125L61.9375 61.1874C61.875 63.7499 62.9375 65.9375 65.125 67.6875C63.5 70.375 60.3125 70.875 58.375 71.125ZM63.6875 71.25C65.9375 70 67.3125 67.9999 67.6875 65.2499C70.8125 65.3124 72.8125 67.875 74.0625 69.375L74.3125 69.1875L74.125 69.4376C74.5 69.9376 74.8125 70.4375 75.125 70.9375L75.3125 71.25H63.6875Z" fill="white"/>
</svg>
