<svg width="80" height="80" viewBox="0 0 80 80" fill="none" xmlns="http://www.w3.org/2000/svg">
<g clip-path="url(#clip0_4526_10275)">
<mask id="mask0_4526_10275" style="mask-type:luminance" maskUnits="userSpaceOnUse" x="8" y="21" width="64" height="56">
<path d="M8.75 21.875V58.125L40 76.25L71.25 58.125L8.75 21.875Z" fill="white"/>
</mask>
<g mask="url(#mask0_4526_10275)">
<path d="M9.375 22.1875V57.8125L40 75.625L70.625 57.8125V22.1875L40 4.375L9.375 22.1875Z" stroke="#61FFE4" stroke-width="1.25" stroke-miterlimit="10"/>
<path opacity="0.82" d="M14 24.8766V55.1266L40 70.2453L66 55.1266V24.8766L40 9.75781L14 24.8766Z" stroke="#61FFE4" stroke-width="1.25" stroke-miterlimit="10"/>
<path opacity="0.64" d="M18.625 27.568V52.4305L40 64.8617L61.375 52.4305V27.568L40 15.1367L18.625 27.568Z" stroke="#61FFE4" stroke-width="1.25" stroke-miterlimit="10"/>
<path opacity="0.46" d="M23.25 30.2555V49.743L40 59.4867L56.75 49.743V30.2555L40 20.5117L23.25 30.2555Z" stroke="#61FFE4" stroke-width="1.25" stroke-miterlimit="10"/>
<path opacity="0.28" d="M27.875 32.9508V47.0508L40 54.107L52.125 47.0508V32.9508L40 25.8945L27.875 32.9508Z" stroke="#61FFE4" stroke-width="1.25" stroke-miterlimit="10"/>
<path opacity="0.1" d="M32.5 35.6359V44.3609L40 48.7234L47.5 44.3609V35.6359L40 31.2734L32.5 35.6359Z" stroke="#61FFE4" stroke-width="1.25" stroke-miterlimit="10"/>
</g>
<mask id="mask1_4526_10275" style="mask-type:luminance" maskUnits="userSpaceOnUse" x="8" y="3" width="64" height="56">
<path d="M71.25 58.125V21.875L40 3.75L8.75 21.875L71.25 58.125Z" fill="white"/>
</mask>
<g mask="url(#mask1_4526_10275)">
<path opacity="0.1" d="M70.625 57.8125V22.1875L40 4.375L9.375 22.1875V57.8125L40 75.625L70.625 57.8125Z" stroke="#44FFB7" stroke-width="1.25" stroke-miterlimit="10"/>
<path opacity="0.28" d="M66 55.1266V24.8766L40 9.75781L14 24.8766V55.1266L40 70.2453L66 55.1266Z" stroke="#44FFB7" stroke-width="1.25" stroke-miterlimit="10"/>
<path opacity="0.46" d="M61.375 52.4305V27.568L40 15.1367L18.625 27.568V52.4305L40 64.8617L61.375 52.4305Z" stroke="#44FFB7" stroke-width="1.25" stroke-miterlimit="10"/>
<path opacity="0.64" d="M56.75 49.7445V30.257L40 20.5195L23.25 30.257V49.7445L40 59.4883L56.75 49.7445Z" stroke="#44FFB7" stroke-width="1.25" stroke-miterlimit="10"/>
<path opacity="0.82" d="M52.125 47.0508V32.9508L40 25.8945L27.875 32.9508V47.0508L40 54.107L52.125 47.0508Z" stroke="#44FFB7" stroke-width="1.25" stroke-miterlimit="10"/>
<path d="M47.5 44.3609V35.6359L40 31.2734L32.5 35.6359V44.3609L40 48.7234L47.5 44.3609Z" stroke="#44FFB7" stroke-width="1.25" stroke-miterlimit="10"/>
</g>
<path d="M56.6562 49.6875V30.3125L40 20.625L23.3438 30.3125V49.6875L40 59.375L56.6562 49.6875Z" stroke="white" stroke-width="1.25" stroke-miterlimit="10"/>
<path d="M40 20.625V4.375" stroke="white" stroke-width="1.25" stroke-miterlimit="10"/>
<path d="M56.6562 30.3125L70.625 22.1875" stroke="white" stroke-width="1.25" stroke-miterlimit="10"/>
<path d="M56.6562 49.6875L71.25 58.125" stroke="white" stroke-width="1.25" stroke-miterlimit="10"/>
<path d="M40 59.375V75.625" stroke="white" stroke-width="1.25" stroke-miterlimit="10"/>
<path d="M23.3437 49.6875L9.375 57.8125" stroke="white" stroke-width="1.25" stroke-miterlimit="10"/>
<path d="M23.3437 30.3125L8.75 21.875" stroke="white" stroke-width="1.25" stroke-miterlimit="10"/>
</g>
<defs>
<clipPath id="clip0_4526_10275">
<rect width="80" height="80" fill="white"/>
</clipPath>
</defs>
</svg>
