<svg width="11" height="7" viewBox="0 0 11 7" fill="none" xmlns="http://www.w3.org/2000/svg">
<path d="M1.60529 1L5.60529 5L9.60529 1" stroke="#7CE3CB" stroke-width="2" stroke-linecap="round"/>
</svg>
