<svg width="12" height="8" viewBox="0 0 12 8" fill="none" xmlns="http://www.w3.org/2000/svg">
<path d="M1.5 3.30769L5.1 7L10.5 1" stroke="#7CE3CB" stroke-width="1.5" stroke-linecap="round" stroke-linejoin="round"/>
</svg>
