<svg width="780" height="579" viewBox="0 0 780 579" fill="none" xmlns="http://www.w3.org/2000/svg">
<g opacity="0.4" filter="url(#filter0_f_4323_48391)">
<circle cx="644" cy="472.762" r="244" fill="#5378FF"/>
</g>
<defs>
<filter id="filter0_f_4323_48391" x="0" y="-171.238" width="1288" height="1288" filterUnits="userSpaceOnUse" color-interpolation-filters="sRGB">
<feFlood flood-opacity="0" result="BackgroundImageFix"/>
<feBlend mode="normal" in="SourceGraphic" in2="BackgroundImageFix" result="shape"/>
<feGaussianBlur stdDeviation="200" result="effect1_foregroundBlur_4323_48391"/>
</filter>
</defs>
</svg>
