<svg width="12" height="11" viewBox="0 0 12 11" fill="none" xmlns="http://www.w3.org/2000/svg">
<path d="M6.39205 10.8011L5.36932 9.78976L8.92045 6.23863H0V4.76135H8.92045L5.36932 1.2159L6.39205 0.198853L11.6932 5.49999L6.39205 10.8011Z" fill="#194AFF"/>
</svg>
