<svg width="12" height="12" viewBox="0 0 12 12" fill="none" xmlns="http://www.w3.org/2000/svg">
<path d="M6.39205 11.3011L5.36932 10.2898L8.92045 6.73863H0V5.26135H8.92045L5.36932 1.7159L6.39205 0.698853L11.6932 5.99999L6.39205 11.3011Z" fill="#642EFF"/>
</svg>
